[
{
    "model": "main.restaurante",
    "pk": "030eaf75-da6e-4748-9727-f2704f831498",
    "fields": {
        "rating": 2,
        "name": "Ni\u00f1o - Negrete",
        "site": "https://elizabeth.gob.mx",
        "email": "Luz_Sevilla@gmail.com",
        "phone": "5178-668-409",
        "street": "3041 Gael Torrente",
        "city": "Quer\u00e9taro Saratown",
        "state": "Oaxaca",
        "lat": "19.4416814748901",
        "lng": "-99.1265732438097"
    }
},
{
    "model": "main.restaurante",
    "pk": "04e43341-64c0-4f66-822f-f2c0ef02e6bc",
    "fields": {
        "rating": 0,
        "name": "Barela e Hijos",
        "site": "https://timoteo.gob.mx",
        "email": "Soledad.Brito7@yahoo.com",
        "phone": "500 281 343",
        "street": "8758 Alondra Romina Parcela",
        "city": "Guadalupeside",
        "state": "Tamaulipas",
        "lat": "19.4416139456541",
        "lng": "-99.1336614550933"
    }
},
{
    "model": "main.restaurante",
    "pk": "073aa6dc-3363-417c-b3f4-eba74fb75de8",
    "fields": {
        "rating": 3,
        "name": "Palacios, Moreno and Bustamante",
        "site": "http://bernardo.mx",
        "email": "Luis.Anaya25@corpfolder.com",
        "phone": "581 978 966",
        "street": "37097 Florencia Senda",
        "city": "Octavioville",
        "state": "Chiapas",
        "lat": "19.4345657240534",
        "lng": "-99.1324248464642"
    }
},
{
    "model": "main.restaurante",
    "pk": "097f66dd-ca33-4f30-88e4-33193fcf8cda",
    "fields": {
        "rating": 1,
        "name": "Brise\u00f1o - Rodarte",
        "site": "https://fernando javier.com",
        "email": "Mario84@yahoo.com",
        "phone": "5256-976-186",
        "street": "780 Medina Terrenos",
        "city": "Madridland",
        "state": "Sonora",
        "lat": "19.4338572792132",
        "lng": "-99.1254273785957"
    }
},
{
    "model": "main.restaurante",
    "pk": "0b9447e8-6253-4337-b9a0-d6573149fde0",
    "fields": {
        "rating": 1,
        "name": "Palomino - Vargas",
        "site": "http://abigail.mx",
        "email": "Cecilia_Zabaleta76@nearbpo.com",
        "phone": "566.689.802",
        "street": "396 Abreu Bloque",
        "city": "Kortajarenaside",
        "state": "Quintana Roo",
        "lat": "19.4344720539688",
        "lng": "-99.1317786295296"
    }
},
{
    "model": "main.restaurante",
    "pk": "0c91a515-2be1-4e8b-a4b0-be4f0ed1cce1",
    "fields": {
        "rating": 0,
        "name": "Pedroza, Heredia and Lebr\u00f3n",
        "site": "https://zoe.com",
        "email": "Teodoro_Zelaya@gmail.com",
        "phone": "5932-627-483",
        "street": "69201 D\u00e1vila Edificio",
        "city": "Julioview",
        "state": "Baja California Norte",
        "lat": "19.4338683815538",
        "lng": "-99.1265759170152"
    }
},
{
    "model": "main.restaurante",
    "pk": "15c7fea0-89e8-4539-8632-46a619ef4ce9",
    "fields": {
        "rating": 1,
        "name": "Garc\u00eda e Hijos",
        "site": "http://victor manuel.gob.mx",
        "email": "JosEmilio31@corpfolder.com",
        "phone": "5250-478-668",
        "street": "3239 Apodaca Parque",
        "city": "Campeche Ramiroborough",
        "state": "Puebla",
        "lat": "19.4329125180636",
        "lng": "-99.1312079178662"
    }
},
{
    "model": "main.restaurante",
    "pk": "19e1837a-c9ad-49d8-8d6d-7cb1d2ee0700",
    "fields": {
        "rating": 0,
        "name": "\u00c1guilar - Matos",
        "site": "https://eloisa.com.mx",
        "email": "LuisMiguel.Godnez83@yahoo.com",
        "phone": "5616-561-563",
        "street": "319 Dolores Rampa",
        "city": "Coatzacoalcos Gonzalo",
        "state": "Oaxaca",
        "lat": "19.4371495033689",
        "lng": "-99.1265104266516"
    }
},
{
    "model": "main.restaurante",
    "pk": "1b413a3a-e894-4142-a954-37176f12003b",
    "fields": {
        "rating": 1,
        "name": "B\u00e1ez, Karan and Armijo",
        "site": "https://fernando.info",
        "email": "Alexa.Ortega@yahoo.com",
        "phone": "545520700",
        "street": "08030 Juan Manuel Torrente",
        "city": "Uruapan del Progreso Juan Pabloland",
        "state": "Tabasco",
        "lat": "19.4336995689413",
        "lng": "-99.1310921118645"
    }
},
{
    "model": "main.restaurante",
    "pk": "1ce2e219-d0e5-4f88-85f9-c152485ec7ab",
    "fields": {
        "rating": 0,
        "name": "Matos S.L.",
        "site": "https://ricardo.info",
        "email": "JosEmilio.Cotto69@corpfolder.com",
        "phone": "5502-208-117",
        "street": "69982 Luis Gabino Terrenos",
        "city": "Canc\u00fan Estefan\u00edahaven",
        "state": "Hidalgo",
        "lat": "19.4420166275981",
        "lng": "-99.1313996519641"
    }
},
{
    "model": "main.restaurante",
    "pk": "1ce4a7f8-ff21-4450-9107-f4f952f39f99",
    "fields": {
        "rating": 4,
        "name": "Kortajarena - Rangel",
        "site": "http://d\u00e9bora.gob.mx",
        "email": "Brandon_Quiros@gmail.com",
        "phone": "560 092 151",
        "street": "59897 Esquivel Aldea",
        "city": "Monterrey Dulce Mar\u00eda",
        "state": "Quer\u00e9taro",
        "lat": "19.440701969313",
        "lng": "-99.1260149339613"
    }
},
{
    "model": "main.restaurante",
    "pk": "1d7e6cac-013e-404b-8d93-19d838ef30e1",
    "fields": {
        "rating": 1,
        "name": "Padilla, Mata and Posada",
        "site": "https://gabriel.com.mx",
        "email": "Josefina_Cano@corpfolder.com",
        "phone": "554 352 295",
        "street": "0658 Espino Conjunto",
        "city": "M\u00e9rida Emilio",
        "state": "Guerrero",
        "lat": "19.4391502709296",
        "lng": "-99.1241315374085"
    }
},
{
    "model": "main.restaurante",
    "pk": "24345eda-0451-4225-a6d0-17365f746afc",
    "fields": {
        "rating": 3,
        "name": "Jaramillo - Flores",
        "site": "http://jos\u00e9 antonio.com.mx",
        "email": "Patricia.Noriega75@yahoo.com",
        "phone": "520.411.112",
        "street": "2399 Esquibel Partida",
        "city": "Culiac\u00e1n Cristianport",
        "state": "Chihuahua",
        "lat": "19.4419967206293",
        "lng": "-99.1243064222698"
    }
},
{
    "model": "main.restaurante",
    "pk": "2b8f5a44-1e8b-44ec-9b25-0edc5b64b7e6",
    "fields": {
        "rating": 3,
        "name": "Hurtado, Rol\u00f3n and Segovia",
        "site": "https://el\u00edas.org",
        "email": "RosaMara_Figueroa@corpfolder.com",
        "phone": "559.867.074",
        "street": "039 Susana Pol\u00edgono",
        "city": "Marco Antonioland",
        "state": "Colima",
        "lat": "19.433497663015",
        "lng": "-99.1285135065721"
    }
},
{
    "model": "main.restaurante",
    "pk": "32084e1d-41b9-4dc8-9b8a-83b5003302c1",
    "fields": {
        "rating": 2,
        "name": "S\u00e1enz - Romo",
        "site": "https://juan.gob.mx",
        "email": "Pablo_Alicea@yahoo.com",
        "phone": "523671866",
        "street": "65816 Sergio Parque",
        "city": "Becerraport",
        "state": "Sonora",
        "lat": "19.439706773805",
        "lng": "-99.1294421685118"
    }
},
{
    "model": "main.restaurante",
    "pk": "32b74fb4-1911-4db9-9646-f5ce4663ff1c",
    "fields": {
        "rating": 0,
        "name": "Alicea - Casta\u00f1eda",
        "site": "https://gustavo.org",
        "email": "Gerardo_Ozuna32@yahoo.com",
        "phone": "599 747 935",
        "street": "5702 Yamileth Terrenos",
        "city": "Coronadoview",
        "state": "Zacatecas",
        "lat": "19.4394962074356",
        "lng": "-99.1264430870515"
    }
},
{
    "model": "main.restaurante",
    "pk": "35b9efad-5168-419e-96bc-0535e5e5d2f9",
    "fields": {
        "rating": 1,
        "name": "Villarreal - Gayt\u00e1n",
        "site": "http://yolanda.info",
        "email": "Camila.Castellanos@corpfolder.com",
        "phone": "5344-687-599",
        "street": "00698 Vallejo Ferrocarril",
        "city": "Arriagabury",
        "state": "Veracruz",
        "lat": "19.4371300218306",
        "lng": "-99.1285803138142"
    }
},
{
    "model": "main.restaurante",
    "pk": "36d43234-edd6-4680-8054-f2f6e4e4ab47",
    "fields": {
        "rating": 3,
        "name": "Polanco - Rodr\u00edguez",
        "site": "http://paola.gob.mx",
        "email": "Mayte.Camacho@nearbpo.com",
        "phone": "5778-085-952",
        "street": "31916 Daniel Glorieta",
        "city": "Zitacuaro Monserratchester",
        "state": "Sinaloa",
        "lat": "19.4345222724234",
        "lng": "-99.1268400906496"
    }
},
{
    "model": "main.restaurante",
    "pk": "3765054a-c706-4dcd-8424-aa8db4e5a4bd",
    "fields": {
        "rating": 4,
        "name": "Cas\u00e1rez S.L.",
        "site": "https://julio c\u00e9sar.gob.mx",
        "email": "Isaac86@gmail.com",
        "phone": "567057696",
        "street": "808 Noriega Pasaje",
        "city": "La Paz Lucasbury",
        "state": "Jalisco",
        "lat": "19.4354772960097",
        "lng": "-99.1257455545481"
    }
},
{
    "model": "main.restaurante",
    "pk": "38c965f9-74b0-4d8e-9cc2-2e457a1ebb83",
    "fields": {
        "rating": 3,
        "name": "Arreola Hermanos",
        "site": "https://alejandra.com.mx",
        "email": "Ximena_Domnquez62@yahoo.com",
        "phone": "531.757.355",
        "street": "9061 Fernando Puente",
        "city": "Campeche Mercedes",
        "state": "Guanajuato",
        "lat": "19.4349888225906",
        "lng": "-99.1263073477967"
    }
},
{
    "model": "main.restaurante",
    "pk": "39292d20-d201-4f0f-91a2-58e0f38fb2a2",
    "fields": {
        "rating": 0,
        "name": "Carrillo - Ozuna",
        "site": "https://carlos.mx",
        "email": "Armando82@yahoo.com",
        "phone": "515577461",
        "street": "18190 Villag\u00f3mez Ronda",
        "city": "Reynosa-R\u00edo Bravo Sofia",
        "state": "Colima",
        "lat": "19.4426364027457",
        "lng": "-99.1282194494786"
    }
},
{
    "model": "main.restaurante",
    "pk": "39be48e9-ec92-4ce5-8c90-768dfe20fc37",
    "fields": {
        "rating": 1,
        "name": "Almaraz, Narv\u00e1ez and Ur\u00edas",
        "site": "https://sebastian.com.mx",
        "email": "Lola32@nearbpo.com",
        "phone": "500 100 614",
        "street": "684 Rol\u00f3n Apartamento",
        "city": "Karanmouth",
        "state": "Oaxaca",
        "lat": "19.4403983376366",
        "lng": "-99.1311737788635"
    }
},
{
    "model": "main.restaurante",
    "pk": "3b84c87a-1cf9-40e8-81ff-19669240ce9b",
    "fields": {
        "rating": 2,
        "name": "Naranjo, Galarza and \u00c1guilar",
        "site": "https://juan pablo.com",
        "email": "Monserrat.Lozano77@corpfolder.com",
        "phone": "588438707",
        "street": "9390 Manuel Sector",
        "city": "Cuernavaca Aliciachester",
        "state": "Puebla",
        "lat": "19.4353167526405",
        "lng": "-99.1330388682153"
    }
},
{
    "model": "main.restaurante",
    "pk": "3e21e0c4-3f89-42fb-8676-8350b95883e2",
    "fields": {
        "rating": 3,
        "name": "Mu\u00f1oz, Armend\u00e1riz and Moya",
        "site": "https://abraham.com.mx",
        "email": "Emilio.Kortahernandez@nearbpo.com",
        "phone": "500 103 302",
        "street": "626 Adriana Ramal",
        "city": "Rochaport",
        "state": "Veracruz",
        "lat": "19.4347243681182",
        "lng": "-99.124112030466"
    }
},
{
    "model": "main.restaurante",
    "pk": "3e26a92c-defb-4475-8c23-450750556fb9",
    "fields": {
        "rating": 4,
        "name": "Galarza, Griego and Orozco",
        "site": "https://jos\u00e9 luis.com.mx",
        "email": "JosEduardo_Narvez@nearbpo.com",
        "phone": "5177-114-746",
        "street": "0785 Jos\u00e9 Luis Mercado",
        "city": "Tampico-P\u00e1nuco Mercedes",
        "state": "Guerrero",
        "lat": "19.4353118112828",
        "lng": "-99.1309174043316"
    }
},
{
    "model": "main.restaurante",
    "pk": "3eb803d7-445a-43cd-9d08-2c3bd1c56148",
    "fields": {
        "rating": 1,
        "name": "Esquivel S.L.",
        "site": "https://abigail.com",
        "email": "Norma40@corpfolder.com",
        "phone": "552972577",
        "street": "66678 Andr\u00e9s Salida",
        "city": "Zacatlan Berta",
        "state": "Baja California Sur",
        "lat": "19.4380931173689",
        "lng": "-99.1334110923394"
    }
},
{
    "model": "main.restaurante",
    "pk": "40424cd9-a4ff-466f-bea9-51cacb2dd2d5",
    "fields": {
        "rating": 3,
        "name": "Cruz, Korta hernandez and Y\u00e1\u00f1ez",
        "site": "http://pedro.info",
        "email": "Jorge.Carrion@gmail.com",
        "phone": "551 482 751",
        "street": "684 Barrientos Monte",
        "city": "Orizaba Nataliahaven",
        "state": "Estado de M\u00e9xico",
        "lat": "19.4420366147771",
        "lng": "-99.1327560682552"
    }
},
{
    "model": "main.restaurante",
    "pk": "4501fb34-eefe-4f63-90c9-a9a1272df71d",
    "fields": {
        "rating": 0,
        "name": "Gallardo - Angulo",
        "site": "https://jos\u00e9 antonio.mx",
        "email": "Brandon34@gmail.com",
        "phone": "5191-333-084",
        "street": "7229 Villarreal Gran Subida",
        "city": "Campeche Daniela",
        "state": "Quintana Roo",
        "lat": "19.4341320322948",
        "lng": "-99.1326235608364"
    }
},
{
    "model": "main.restaurante",
    "pk": "4e17896d-a26f-44ae-a8a4-5fbd5cde79b0",
    "fields": {
        "rating": 0,
        "name": "Hern\u00e1ndez - Lira",
        "site": "http://graciela.com.mx",
        "email": "Brandon_Vigil@hotmail.com",
        "phone": "570 746 998",
        "street": "93725 Erick Arroyo",
        "city": "Mateofurt",
        "state": "Hidalgo",
        "lat": "19.437904276995",
        "lng": "-99.1286576775023"
    }
},
{
    "model": "main.restaurante",
    "pk": "4e20f081-3095-4918-88f8-9591991b017f",
    "fields": {
        "rating": 4,
        "name": "V\u00e9lez - Maldonado",
        "site": "http://jos\u00e9 eduardo.org",
        "email": "Diego16@gmail.com",
        "phone": "516.205.131",
        "street": "5206 Ju\u00e1rez Salida",
        "city": "Manuelaburgh",
        "state": "Puebla",
        "lat": "19.437768497719",
        "lng": "-99.1286486584673"
    }
},
{
    "model": "main.restaurante",
    "pk": "534d5669-c0d4-4fe1-805e-7f836eb80e0f",
    "fields": {
        "rating": 1,
        "name": "Zayas - Loya",
        "site": "https://javier.com",
        "email": "Teresa_Miramontes@nearbpo.com",
        "phone": "523.743.315",
        "street": "9119 Lorenzo Riera",
        "city": "Tulancingo Zoe",
        "state": "Tlaxcala",
        "lat": "19.4409621455642",
        "lng": "-99.1257052728607"
    }
},
{
    "model": "main.restaurante",
    "pk": "556091ed-3047-4f07-a2e3-1abbb37ff1bd",
    "fields": {
        "rating": 4,
        "name": "Kamat S.L.",
        "site": "http://melissa.mx",
        "email": "Eva88@corpfolder.com",
        "phone": "5756-043-582",
        "street": "4820 Gurule Rambla",
        "city": "Le\u00f3n Kimberlyland",
        "state": "Aguascalientes",
        "lat": "19.4402502573403",
        "lng": "-99.129177464601"
    }
},
{
    "model": "main.restaurante",
    "pk": "5675b76e-738a-4f6f-9adc-2a1b708b67fc",
    "fields": {
        "rating": 1,
        "name": "Yanes S.A.",
        "site": "http://rub\u00e9n.info",
        "email": "MaraLuisa_Amador@nearbpo.com",
        "phone": "555 572 993",
        "street": "358 Mar\u00eda Soledad Arrabal",
        "city": "Tlalnepantla Cristobal",
        "state": "Baja California Sur",
        "lat": "19.4392354955343",
        "lng": "-99.1289326011347"
    }
},
{
    "model": "main.restaurante",
    "pk": "58131b8b-1b93-495f-b7a1-0e2e1b93633d",
    "fields": {
        "rating": 2,
        "name": "Meraz e Hijos",
        "site": "http://ximena.gob.mx",
        "email": "Isabela.Briones11@gmail.com",
        "phone": "5495-151-485",
        "street": "10411 Pagan Salida",
        "city": "Ciudad de M\u00e9xico Carlota",
        "state": "Aguascalientes",
        "lat": "19.4386824334767",
        "lng": "-99.1289113955692"
    }
},
{
    "model": "main.restaurante",
    "pk": "58c0549f-4b2c-43d4-af8d-d4641ffa9f66",
    "fields": {
        "rating": 4,
        "name": "Zabaleta S.A.",
        "site": "http://sofia.com",
        "email": "Bernardo.Yebra48@hotmail.com",
        "phone": "538173475",
        "street": "65562 Olivas Rinc\u00f3n",
        "city": "Durango Elizabethchester",
        "state": "Campeche",
        "lat": "19.4353102945797",
        "lng": "-99.1292043829922"
    }
},
{
    "model": "main.restaurante",
    "pk": "596081be-67c8-4c47-8c56-e2611cd4fa32",
    "fields": {
        "rating": 2,
        "name": "Olivo, Santana and Elizondo",
        "site": "http://victor manuel.gob.mx",
        "email": "Emmanuel_Rosas56@nearbpo.com",
        "phone": "545.851.405",
        "street": "4409 Jos\u00e9 Luis Rampa",
        "city": "Elizabethtown",
        "state": "Durango",
        "lat": "19.4349571052152",
        "lng": "-99.1273542526554"
    }
},
{
    "model": "main.restaurante",
    "pk": "59cddeed-fbea-425f-8181-4bd1354b4dfe",
    "fields": {
        "rating": 1,
        "name": "Arias S.L.",
        "site": "https://alejandro.com.mx",
        "email": "Axel.Zavala60@hotmail.com",
        "phone": "537 651 378",
        "street": "739 Ortiz Manzana",
        "city": "Abrahamfurt",
        "state": "Baja California Norte",
        "lat": "19.433120066708",
        "lng": "-99.1278492816332"
    }
},
{
    "model": "main.restaurante",
    "pk": "5b04ad6d-54c1-419c-b8cd-69090fee4e76",
    "fields": {
        "rating": 0,
        "name": "Ramos S.L.",
        "site": "https://mat\u00edas.gob.mx",
        "email": "Daniela_Castillo26@yahoo.com",
        "phone": "565166901",
        "street": "919 Salvador Colonia",
        "city": "\u00c1ngel Gabrielfurt",
        "state": "Chiapas",
        "lat": "19.4328546478255",
        "lng": "-99.1334435543724"
    }
},
{
    "model": "main.restaurante",
    "pk": "5dccd552-2941-485c-a80d-8a769f4df5c5",
    "fields": {
        "rating": 0,
        "name": "Pelayo, Puente and Echevarr\u00eda",
        "site": "https://homero.gob.mx",
        "email": "Eva.Ferrer47@hotmail.com",
        "phone": "568360596",
        "street": "96024 Ana Sof\u00eda Pol\u00edgono",
        "city": "Chetumal Liliafort",
        "state": "Tlaxcala",
        "lat": "19.4407029973394",
        "lng": "-99.1274806865075"
    }
},
{
    "model": "main.restaurante",
    "pk": "5e238917-a1e1-408a-93d5-0c1bcb3361bc",
    "fields": {
        "rating": 0,
        "name": "Carranza e Hijos",
        "site": "http://diana.org",
        "email": "Teresa_Domnquez39@corpfolder.com",
        "phone": "545.204.593",
        "street": "19099 Isabel Bloque",
        "city": "Tlaxcala-Apizaco Juan Manuel",
        "state": "Sinaloa",
        "lat": "19.4397348136227",
        "lng": "-99.1323492884756"
    }
},
{
    "model": "main.restaurante",
    "pk": "601c7236-e03c-4ba1-beb5-38fbc09108f9",
    "fields": {
        "rating": 1,
        "name": "Mesa e Hijos",
        "site": "http://sofia.org",
        "email": "Julia_Chavarra@nearbpo.com",
        "phone": "565 772 068",
        "street": "6236 Axel Mas\u00eda",
        "city": "Francisco Javierland",
        "state": "Baja California Sur",
        "lat": "19.4332135495246",
        "lng": "-99.1317243400941"
    }
},
{
    "model": "main.restaurante",
    "pk": "6308a2f2-6719-4ff6-818e-4e62f41a5296",
    "fields": {
        "rating": 4,
        "name": "Ben\u00edtez - Carbajal",
        "site": "https://jaime.com.mx",
        "email": "Eva_Faras11@corpfolder.com",
        "phone": "566384264",
        "street": "795 Gayt\u00e1n Colonia",
        "city": "Nicol\u00e1sview",
        "state": "Durango",
        "lat": "19.4392862624074",
        "lng": "-99.1315240351859"
    }
},
{
    "model": "main.restaurante",
    "pk": "650156a1-081b-4760-b438-0cee445be58e",
    "fields": {
        "rating": 3,
        "name": "Reyna S.A.",
        "site": "https://soledad.gob.mx",
        "email": "XimenaGuadalupe.Alaniz@nearbpo.com",
        "phone": "518 264 968",
        "street": "895 Xenia Prolongaci\u00f3n",
        "city": "Mazatl\u00e1n Antoniamouth",
        "state": "Morelos",
        "lat": "19.4391381510049",
        "lng": "-99.1331929757194"
    }
},
{
    "model": "main.restaurante",
    "pk": "6589e471-ae41-4e6b-83b8-9654d6fc71ea",
    "fields": {
        "rating": 1,
        "name": "Peres, Meraz and Pe\u00f1a",
        "site": "http://esteban.com.mx",
        "email": "Luisngel.Gmez50@nearbpo.com",
        "phone": "581 479 974",
        "street": "134 Hidalgo Avenida",
        "city": "Ojo de agua Luis \u00c1ngelport",
        "state": "Campeche",
        "lat": "19.4329329697467",
        "lng": "-99.1312921006981"
    }
},
{
    "model": "main.restaurante",
    "pk": "6b7cd221-7859-4ece-8ed6-fd79283f0e65",
    "fields": {
        "rating": 2,
        "name": "Hurtado, Armijo and Soto",
        "site": "https://iker.org",
        "email": "Patricio.Alonso52@gmail.com",
        "phone": "5234-475-063",
        "street": "830 Valent\u00edn Colonia",
        "city": "La Laguna Ana Mar\u00edamouth",
        "state": "Tabasco",
        "lat": "19.4334338750765",
        "lng": "-99.1304472538227"
    }
},
{
    "model": "main.restaurante",
    "pk": "6e658154-be6f-409c-9c38-b53cc38c2705",
    "fields": {
        "rating": 3,
        "name": "Figueroa e Hijos",
        "site": "http://mar\u00eda cristina.org",
        "email": "FernandoJavier.Batista@nearbpo.com",
        "phone": "576.091.302",
        "street": "166 Gaona Ferrocarril",
        "city": "Tetela de Ocampo Ester",
        "state": "Yucat\u00e1n",
        "lat": "19.4341630436042",
        "lng": "-99.1306978434607"
    }
},
{
    "model": "main.restaurante",
    "pk": "714ce590-f302-4453-895b-aa2992c2fa2c",
    "fields": {
        "rating": 1,
        "name": "Armend\u00e1riz S.A.",
        "site": "https://eloisa.org",
        "email": "Regina35@yahoo.com",
        "phone": "542 891 822",
        "street": "821 Agust\u00edn Quinta",
        "city": "Piedras Negras Jes\u00fasberg",
        "state": "Chiapas",
        "lat": "19.4365512864902",
        "lng": "-99.1330232850163"
    }
},
{
    "model": "main.restaurante",
    "pk": "7173d827-3308-46d8-9b9e-86306ec64f78",
    "fields": {
        "rating": 3,
        "name": "Carre\u00f3n e Hijos",
        "site": "http://dolores.org",
        "email": "Benjamn.Arenas27@yahoo.com",
        "phone": "572.204.703",
        "street": "7124 Granado Parcela",
        "city": "Celaya Carlos",
        "state": "Puebla",
        "lat": "19.4405543555394",
        "lng": "-99.1268034744616"
    }
},
{
    "model": "main.restaurante",
    "pk": "71795f1c-4ca0-4ec7-b925-5b906711329b",
    "fields": {
        "rating": 3,
        "name": "Zamudio S.L.",
        "site": "http://cecilia.com.mx",
        "email": "Estela.Quinta80@hotmail.com",
        "phone": "590.101.852",
        "street": "928 Benav\u00eddez Municipio",
        "city": "Terrazasside",
        "state": "Baja California Sur",
        "lat": "19.436545609192",
        "lng": "-99.1255914573305"
    }
},
{
    "model": "main.restaurante",
    "pk": "72bd30eb-192f-4f5a-bda2-bde3ae0844c2",
    "fields": {
        "rating": 1,
        "name": "Huerta e Hijos",
        "site": "https://esteban.com.mx",
        "email": "Gloria_Robledo73@nearbpo.com",
        "phone": "509.051.989",
        "street": "93160 Xairo Belmonte V\u00eda",
        "city": "Ciudad Obreg\u00f3n Emmanuel",
        "state": "Zacatecas",
        "lat": "19.439100216425",
        "lng": "-99.1246991701265"
    }
},
{
    "model": "main.restaurante",
    "pk": "72cc52c1-7aa5-4098-a391-5a713e2d9781",
    "fields": {
        "rating": 0,
        "name": "Lozada, Ch\u00e1vez and Guerrero",
        "site": "https://estefan\u00eda.mx",
        "email": "Victoria.Valadez@corpfolder.com",
        "phone": "567 287 108",
        "street": "66998 Tejada Colegio",
        "city": "Isabelbury",
        "state": "Oaxaca",
        "lat": "19.4386676858929",
        "lng": "-99.1258376904511"
    }
},
{
    "model": "main.restaurante",
    "pk": "74c9182c-9ec1-47cb-8271-50729ae7f95d",
    "fields": {
        "rating": 3,
        "name": "Sol\u00eds, Valles and Collado",
        "site": "http://mariana.com",
        "email": "Mario_Arreola51@gmail.com",
        "phone": "5917-337-221",
        "street": "638 Sedillo Urbanizaci\u00f3n",
        "city": "Concepci\u00f3nside",
        "state": "Quintana Roo",
        "lat": "19.4411028197343",
        "lng": "-99.1292894373791"
    }
},
{
    "model": "main.restaurante",
    "pk": "7b845a5f-94d4-4d52-bbb7-838839a180d6",
    "fields": {
        "rating": 1,
        "name": "Saiz, Aponte and Mu\u00f1oz",
        "site": "https://homero.com",
        "email": "Carolina_Merino@nearbpo.com",
        "phone": "584212054",
        "street": "563 Verduzco V\u00eda P\u00fablica",
        "city": "Nuevo Laredo Alejandrahaven",
        "state": "San Luis Potos\u00ed",
        "lat": "19.4414878243213",
        "lng": "-99.1274899318585"
    }
},
{
    "model": "main.restaurante",
    "pk": "7b97ebd0-6c61-43b1-80c6-bdc88846c727",
    "fields": {
        "rating": 3,
        "name": "Arag\u00f3n, Robles and Echevarr\u00eda",
        "site": "https://mario.org",
        "email": "MaradeJess32@gmail.com",
        "phone": "558.191.752",
        "street": "5983 Tapia Lado",
        "city": "Juanaborough",
        "state": "Baja California Sur",
        "lat": "19.4369541201093",
        "lng": "-99.1300720732733"
    }
},
{
    "model": "main.restaurante",
    "pk": "7ef3ed97-ebd6-4114-b2c1-af664534df79",
    "fields": {
        "rating": 1,
        "name": "J\u00e1quez, Jim\u00ednez and Yami",
        "site": "http://dulce mar\u00eda.org",
        "email": "Ivan_Delro32@gmail.com",
        "phone": "555522401",
        "street": "057 Mel\u00e9ndez Aldea",
        "city": "Zacatlan Claudia",
        "state": "Baja California Sur",
        "lat": "19.4417827101103",
        "lng": "-99.1295518319173"
    }
},
{
    "model": "main.restaurante",
    "pk": "80537b08-6bae-444b-9564-98731e680f59",
    "fields": {
        "rating": 0,
        "name": "Alaniz - Aponte",
        "site": "https://ariadna.com.mx",
        "email": "Mara26@corpfolder.com",
        "phone": "524.823.622",
        "street": "750 Alberto Escalinata",
        "city": "Tehuantepec-Salina Cruz Mauriciostad",
        "state": "Hidalgo",
        "lat": "19.4328851082879",
        "lng": "-99.1264391826167"
    }
},
{
    "model": "main.restaurante",
    "pk": "811fa2fc-f29c-4152-a821-7c2a67ab5d21",
    "fields": {
        "rating": 4,
        "name": "Gallegos, Anguiano and Jurado",
        "site": "http://eduardo.com",
        "email": "Carla.Ramn81@corpfolder.com",
        "phone": "5572-745-754",
        "street": "2179 Jos\u00e9 Plaza",
        "city": "Sofiaville",
        "state": "Durango",
        "lat": "19.4340626239805",
        "lng": "-99.123802582133"
    }
},
{
    "model": "main.restaurante",
    "pk": "83967700-00d9-4d8e-8b5d-dd72f4fba3e5",
    "fields": {
        "rating": 0,
        "name": "Bueno, Crespo and Rodr\u00edgez",
        "site": "https://gonzalo.com",
        "email": "Toms.Sols@gmail.com",
        "phone": "5578-929-369",
        "street": "6347 Reina Salida",
        "city": "Roybalfort",
        "state": "Zacatecas",
        "lat": "19.4414123829808",
        "lng": "-99.1285456725889"
    }
},
{
    "model": "main.restaurante",
    "pk": "84314586-29fb-420f-95e5-f15fbe7a619c",
    "fields": {
        "rating": 0,
        "name": "Mayorga S.L.",
        "site": "https://eva.com.mx",
        "email": "Melissa51@corpfolder.com",
        "phone": "521.791.308",
        "street": "4152 Karem Mercado",
        "city": "Coatzacoalcos Nicol\u00e1sstad",
        "state": "Baja California Norte",
        "lat": "19.4396650326257",
        "lng": "-99.1324215899109"
    }
},
{
    "model": "main.restaurante",
    "pk": "84572f5a-ea3d-4800-930c-5799a897b06c",
    "fields": {
        "rating": 1,
        "name": "Khalid - Cort\u00e9s",
        "site": "https://rosa mar\u00eda.mx",
        "email": "Alan.Escobar@corpfolder.com",
        "phone": "5191-038-970",
        "street": "225 Cort\u00e9s Mas\u00eda",
        "city": "Ixtapaluca Mar\u00eda de Jes\u00fasmouth",
        "state": "Veracruz",
        "lat": "19.4387030534986",
        "lng": "-99.1266594672533"
    }
},
{
    "model": "main.restaurante",
    "pk": "851f799f-0852-439e-b9b2-df92c43e7672",
    "fields": {
        "rating": 1,
        "name": "Barajas, Bahena and Kano",
        "site": "https://federico.com",
        "email": "Anita_Mata71@hotmail.com",
        "phone": "534 814 204",
        "street": "82247 Mariano Entrada",
        "city": "M\u00e9rida Alfredotown",
        "state": "Durango",
        "lat": "19.4400570537131",
        "lng": "-99.1270470974249"
    }
},
{
    "model": "main.restaurante",
    "pk": "87b35453-f063-461a-b17b-9173f7f09805",
    "fields": {
        "rating": 0,
        "name": "Arevalo - Res\u00e9ndez",
        "site": "http://esteban.info",
        "email": "Valeria.Espinal@yahoo.com",
        "phone": "560 091 544",
        "street": "481 Raquel Huerta",
        "city": "R\u00edoshaven",
        "state": "Guanajuato",
        "lat": "19.4362662910558",
        "lng": "-99.1329428029646"
    }
},
{
    "model": "main.restaurante",
    "pk": "8a5aefe2-8d0c-45b6-aab2-4da2769e10fa",
    "fields": {
        "rating": 4,
        "name": "V\u00e1zquez, Espinal and Cerv\u00e1ntez",
        "site": "http://mariana.gob.mx",
        "email": "Leticia.Hidalgo@nearbpo.com",
        "phone": "528679468",
        "street": "055 Julio Lugar",
        "city": "Zacatlan Jos\u00e9 Emilioside",
        "state": "Guanajuato",
        "lat": "19.4384168098522",
        "lng": "-99.1275969855933"
    }
},
{
    "model": "main.restaurante",
    "pk": "8b8af894-bc42-4664-b08c-6cf4ef28081f",
    "fields": {
        "rating": 3,
        "name": "Delgadillo - Escobar",
        "site": "http://cristian.mx",
        "email": "JosLuis.Valds86@yahoo.com",
        "phone": "5325-988-654",
        "street": "73621 Gloria Colegio",
        "city": "Delgadilloshire",
        "state": "Michoacan",
        "lat": "19.4349934102413",
        "lng": "-99.1317232767496"
    }
},
{
    "model": "main.restaurante",
    "pk": "8d567e51-e73c-47b3-ad15-9ca14c32da14",
    "fields": {
        "rating": 0,
        "name": "\u00d1a\u00f1ez S.L.",
        "site": "http://cristobal.mx",
        "email": "Eduardo_Montes75@nearbpo.com",
        "phone": "506.416.955",
        "street": "705 Gloria Avenida",
        "city": "Armijomouth",
        "state": "Tabasco",
        "lat": "19.4348031353559",
        "lng": "-99.1248489134273"
    }
},
{
    "model": "main.restaurante",
    "pk": "8e086874-60ff-44d5-a327-e4bccf3a90ed",
    "fields": {
        "rating": 2,
        "name": "Moya - Cepeda",
        "site": "https://claudia.info",
        "email": "Silvia20@hotmail.com",
        "phone": "592.612.849",
        "street": "28658 Jos\u00e9 Antonio Aldea",
        "city": "Guardadoview",
        "state": "Chihuahua",
        "lat": "19.4419745943281",
        "lng": "-99.1321057228515"
    }
},
{
    "model": "main.restaurante",
    "pk": "8e5f2c9c-7a25-4cc0-a4fa-306c1a6e2d91",
    "fields": {
        "rating": 2,
        "name": "Sedillo - M\u00e1rquez",
        "site": "https://mar\u00eda teresa.org",
        "email": "DulceMara98@nearbpo.com",
        "phone": "5452-478-262",
        "street": "4279 Tadeo Parcela",
        "city": "Lozanoshire",
        "state": "Chiapas",
        "lat": "19.4345106458622",
        "lng": "-99.133588671354"
    }
},
{
    "model": "main.restaurante",
    "pk": "937518f0-a27f-491e-8788-ae9be0c65b31",
    "fields": {
        "rating": 2,
        "name": "Gonzales, Valladares and Espinal",
        "site": "https://carlota.org",
        "email": "Dolores.Mercado64@corpfolder.com",
        "phone": "5528-685-947",
        "street": "30474 Montez Mercado",
        "city": "Jos\u00e9 Luisstad",
        "state": "Sinaloa",
        "lat": "19.4373070507688",
        "lng": "-99.1280911153489"
    }
},
{
    "model": "main.restaurante",
    "pk": "9c6f0247-d128-4396-b80c-8f9648928ec0",
    "fields": {
        "rating": 4,
        "name": "Salcedo Hermanos",
        "site": "https://marco antonio.org",
        "email": "Victoria.Lucero@corpfolder.com",
        "phone": "573 413 844",
        "street": "7688 Puga Entrada",
        "city": "Gonzaloborough",
        "state": "Sinaloa",
        "lat": "19.4406955632526",
        "lng": "-99.1321159016228"
    }
},
{
    "model": "main.restaurante",
    "pk": "9e71243d-3b46-45de-9f1f-019b1bfe6bac",
    "fields": {
        "rating": 1,
        "name": "Romo, Olmos and Calder\u00f3n",
        "site": "https://valeria.gob.mx",
        "email": "Emilio29@corpfolder.com",
        "phone": "510.186.181",
        "street": "67576 Cab\u00e1n Chalet",
        "city": "Nicol\u00e1sfurt",
        "state": "Jalisco",
        "lat": "19.4409545181696",
        "lng": "-99.1246169936148"
    }
},
{
    "model": "main.restaurante",
    "pk": "9f98fad3-ecd6-421b-ba8c-2bd63340473d",
    "fields": {
        "rating": 2,
        "name": "Mac\u00edas S.L.",
        "site": "http://miguel.com.mx",
        "email": "Jazmin_Santiago7@yahoo.com",
        "phone": "508272671",
        "street": "1736 Adela Urbanizaci\u00f3n",
        "city": "Puerto Vallarta Dorotea",
        "state": "Baja California Sur",
        "lat": "19.4369257779145",
        "lng": "-99.1315607513514"
    }
},
{
    "model": "main.restaurante",
    "pk": "a850ff07-516e-44e4-acd7-26fa0c12f4fc",
    "fields": {
        "rating": 1,
        "name": "Palomo - Cardona",
        "site": "http://marco antonio.org",
        "email": "Lizbeth.Laboy@hotmail.com",
        "phone": "508.505.560",
        "street": "5588 Leticia Torrente",
        "city": "Tetela de Ocampo Silviafurt",
        "state": "Colima",
        "lat": "19.4348698630608",
        "lng": "-99.1280895220492"
    }
},
{
    "model": "main.restaurante",
    "pk": "ac3bafbe-ea67-47cb-af99-63d945f71bf5",
    "fields": {
        "rating": 1,
        "name": "Ledesma, V\u00e9lez and Mat\u00edas",
        "site": "https://miranda.mx",
        "email": "Amalia27@gmail.com",
        "phone": "593 520 541",
        "street": "7630 Collado Huerta",
        "city": "Irapuato Carolina",
        "state": "Jalisco",
        "lat": "19.442714750418",
        "lng": "-99.1272541693695"
    }
},
{
    "model": "main.restaurante",
    "pk": "b2ca0188-62c0-4bba-b20c-62bc2d4ba192",
    "fields": {
        "rating": 4,
        "name": "Rubio S.A.",
        "site": "http://v\u00edctor.info",
        "email": "Hugo.Casrez2@hotmail.com",
        "phone": "5471-253-103",
        "street": "119 Polanco Colegio",
        "city": "Vicentechester",
        "state": "Morelos",
        "lat": "19.4364424457615",
        "lng": "-99.1264581487192"
    }
},
{
    "model": "main.restaurante",
    "pk": "b464014b-44ca-43e3-ba27-7477c8af2a53",
    "fields": {
        "rating": 0,
        "name": "Carrero Hermanos",
        "site": "http://luz.info",
        "email": "Adn.valos@corpfolder.com",
        "phone": "562 179 920",
        "street": "7383 Hinojosa Huerta",
        "city": "Carlahaven",
        "state": "Hidalgo",
        "lat": "19.4331364103761",
        "lng": "-99.1239206144939"
    }
},
{
    "model": "main.restaurante",
    "pk": "b6c3a6d0-4082-4353-926a-b903132b29f4",
    "fields": {
        "rating": 4,
        "name": "Ram\u00f3n Hermanos",
        "site": "http://gloria.gob.mx",
        "email": "Abril.Yez@yahoo.com",
        "phone": "526.705.438",
        "street": "41601 Lucia Manzana",
        "city": "Vallechester",
        "state": "Quintana Roo",
        "lat": "19.4373485952783",
        "lng": "-99.1278959822006"
    }
},
{
    "model": "main.restaurante",
    "pk": "b8b03b3d-4c06-4d91-b895-5d8dc85cbb2e",
    "fields": {
        "rating": 2,
        "name": "Venegas S.L.",
        "site": "http://mar\u00eda guadalupe.com.mx",
        "email": "Dbora.Delgado66@gmail.com",
        "phone": "5810-547-684",
        "street": "776 Burgos Plaza",
        "city": "Karantown",
        "state": "Quintana Roo",
        "lat": "19.441435397794",
        "lng": "-99.1330114246513"
    }
},
{
    "model": "main.restaurante",
    "pk": "beef488c-7f32-4a35-8469-89f5c6277972",
    "fields": {
        "rating": 4,
        "name": "Cordero, Chapa and Lomeli",
        "site": "https://erick.org",
        "email": "Elisa.Orozco1@gmail.com",
        "phone": "577 596 369",
        "street": "70658 Arredondo Extrarradio",
        "city": "Torre\u00f3n Tadeochester",
        "state": "Veracruz",
        "lat": "19.4412851137021",
        "lng": "-99.1308549949321"
    }
},
{
    "model": "main.restaurante",
    "pk": "c0ffd058-e773-47f1-974b-42d41cb555bf",
    "fields": {
        "rating": 3,
        "name": "Rend\u00f3n - Elizondo",
        "site": "https://cristina.mx",
        "email": "Hugo.Casanova49@gmail.com",
        "phone": "5866-337-812",
        "street": "5518 Monserrat Explanada",
        "city": "Chignahuapan Mar\u00eda",
        "state": "Sinaloa",
        "lat": "19.4360705910348",
        "lng": "-99.1297865731994"
    }
},
{
    "model": "main.restaurante",
    "pk": "c29082c4-4352-4517-9b4b-c45f86fc1830",
    "fields": {
        "rating": 2,
        "name": "N\u00e1jera - Ch\u00e1vez",
        "site": "https://pedro.gob.mx",
        "email": "Carlota31@hotmail.com",
        "phone": "5532-129-406",
        "street": "79224 Mariano Traves\u00eda",
        "city": "Nezahualc\u00f3yotl Timoteo",
        "state": "Coahuila",
        "lat": "19.4424869116657",
        "lng": "-99.1238332599196"
    }
},
{
    "model": "main.restaurante",
    "pk": "c4965d5d-4c08-4806-8cfc-77099379ce4e",
    "fields": {
        "rating": 1,
        "name": "Rael, Mota and Cintr\u00f3n",
        "site": "https://francisco.org",
        "email": "Miguelngel4@corpfolder.com",
        "phone": "511.280.590",
        "street": "821 Lorena Ramal",
        "city": "Tula Ad\u00e1nville",
        "state": "Chihuahua",
        "lat": "19.4415982312132",
        "lng": "-99.1263520866613"
    }
},
{
    "model": "main.restaurante",
    "pk": "c9186202-30a4-48e7-b20b-c56d733fa76a",
    "fields": {
        "rating": 1,
        "name": "Viera S.L.",
        "site": "http://ximena.gob.mx",
        "email": "Benjamn26@yahoo.com",
        "phone": "518272168",
        "street": "675 Kamal Chalet",
        "city": "Guanajuato Tadeoview",
        "state": "Estado de M\u00e9xico",
        "lat": "19.4422736535412",
        "lng": "-99.1293520211967"
    }
},
{
    "model": "main.restaurante",
    "pk": "cb0e214f-b0e4-496a-8164-eac6105b2d35",
    "fields": {
        "rating": 0,
        "name": "Valles, Tamez and Duarte",
        "site": "https://marta.com",
        "email": "Anita_Crdova@gmail.com",
        "phone": "574 635 517",
        "street": "16737 Garrido Rampa",
        "city": "Piedras Negras Martaport",
        "state": "Campeche",
        "lat": "19.4336349655599",
        "lng": "-99.133191981167"
    }
},
{
    "model": "main.restaurante",
    "pk": "cc9c245d-8b02-44c3-868e-90a3149edd5b",
    "fields": {
        "rating": 2,
        "name": "Vallejo, Jim\u00e9nez and Jaimes",
        "site": "https://alfredo.gob.mx",
        "email": "Ramn_Campos@nearbpo.com",
        "phone": "534 642 223",
        "street": "9775 Amaya Cuesta",
        "city": "Valle de M\u00e9xico Juanborough",
        "state": "Tlaxcala",
        "lat": "19.4356576463445",
        "lng": "-99.125283200194"
    }
},
{
    "model": "main.restaurante",
    "pk": "d04fd5aa-4a56-43a6-91c9-35edaaadadc9",
    "fields": {
        "rating": 0,
        "name": "Calvillo S.L.",
        "site": "https://mart\u00edn.info",
        "email": "JuanPablo.Cervntez@nearbpo.com",
        "phone": "501 812 092",
        "street": "38836 Emilio Partida",
        "city": "Rub\u00e9nchester",
        "state": "Tabasco",
        "lat": "19.4423931664932",
        "lng": "-99.126576982844"
    }
},
{
    "model": "main.restaurante",
    "pk": "d3df42be-c6ff-43f6-8226-066140ab1b01",
    "fields": {
        "rating": 0,
        "name": "Kanzaki e Hijos",
        "site": "http://ivanna.info",
        "email": "Eva_Guerra48@gmail.com",
        "phone": "5487-547-323",
        "street": "8465 Jorge Luis Aldea",
        "city": "Saizside",
        "state": "Quer\u00e9taro",
        "lat": "19.434062387208",
        "lng": "-99.1290043474481"
    }
},
{
    "model": "main.restaurante",
    "pk": "d6782cfc-29ef-4241-985b-0a6ff6cf4c64",
    "fields": {
        "rating": 4,
        "name": "Mungu\u00eda S.L.",
        "site": "https://emmanuel.com.mx",
        "email": "Yaretzi_Saldivar28@yahoo.com",
        "phone": "573.429.070",
        "street": "05203 Mart\u00edn Lado",
        "city": "Le\u00f3n C\u00e9sarland",
        "state": "Guerrero",
        "lat": "19.4388920409004",
        "lng": "-99.1303342703873"
    }
},
{
    "model": "main.restaurante",
    "pk": "d7888ed4-52f0-4be8-a210-f0d28ce0e565",
    "fields": {
        "rating": 0,
        "name": "Paredes - Montero",
        "site": "http://abraham.com.mx",
        "email": "Vanessa_Quinterodelacruz84@hotmail.com",
        "phone": "5783-052-043",
        "street": "237 Regina Jardines",
        "city": "Pilarshire",
        "state": "Nuevo Le\u00f3n",
        "lat": "19.4392401826759",
        "lng": "-99.1331904409434"
    }
},
{
    "model": "main.restaurante",
    "pk": "da7c9bad-6036-4a3a-8873-81dfaa585b26",
    "fields": {
        "rating": 0,
        "name": "Hinojosa Hermanos",
        "site": "https://erick.mx",
        "email": "XimenaGuadalupe.Mireles@nearbpo.com",
        "phone": "5382-692-003",
        "street": "8772 Marrero Huerta",
        "city": "Zaragozafort",
        "state": "Morelos",
        "lat": "19.4371094580814",
        "lng": "-99.1292572617558"
    }
},
{
    "model": "main.restaurante",
    "pk": "dd56e1e9-bd67-41cd-baac-a8f9f47ad5c8",
    "fields": {
        "rating": 4,
        "name": "Fuentes, Porras and Barajas",
        "site": "http://ariadna.com.mx",
        "email": "Jimena25@hotmail.com",
        "phone": "5087-469-378",
        "street": "81414 Luz Ferrocarril",
        "city": "Paolabury",
        "state": "Michoacan",
        "lat": "19.439351178762",
        "lng": "-99.1330661270515"
    }
},
{
    "model": "main.restaurante",
    "pk": "ddb77425-2c3f-435c-8391-021b40010b0d",
    "fields": {
        "rating": 0,
        "name": "Serrato Hermanos",
        "site": "https://octavio.org",
        "email": "Yamileth_Lugo28@corpfolder.com",
        "phone": "571.744.718",
        "street": "14476 Delgadillo Partida",
        "city": "Nev\u00e1rezfort",
        "state": "Michoacan",
        "lat": "19.4347042254875",
        "lng": "-99.1263817815393"
    }
},
{
    "model": "main.restaurante",
    "pk": "e5f21255-2dde-469e-bff8-4ea81d6fca27",
    "fields": {
        "rating": 3,
        "name": "Medrano - Chavarr\u00eda",
        "site": "http://julia.org",
        "email": "Kevin.Longoria68@nearbpo.com",
        "phone": "568061069",
        "street": "0302 \u00c1guilar Terrenos",
        "city": "Ocotl\u00e1n Maricarmenstad",
        "state": "Tabasco",
        "lat": "19.436839996763",
        "lng": "-99.1278302262401"
    }
},
{
    "model": "main.restaurante",
    "pk": "e6c4bf95-dba4-44b5-af90-b0ab7214146e",
    "fields": {
        "rating": 0,
        "name": "Zavala - Chavarr\u00eda",
        "site": "https://ignacio.mx",
        "email": "Jernimo_Armas@nearbpo.com",
        "phone": "588078464",
        "street": "019 Arag\u00f3n Urbanizaci\u00f3n",
        "city": "Carrasquillobury",
        "state": "Yucat\u00e1n",
        "lat": "19.4332403037143",
        "lng": "-99.1322942363824"
    }
},
{
    "model": "main.restaurante",
    "pk": "ecbdb52a-4263-4bf1-87fb-8d9d809ea6aa",
    "fields": {
        "rating": 4,
        "name": "Soliz Hermanos",
        "site": "http://roberto.gob.mx",
        "email": "Mercedes_Lugo@hotmail.com",
        "phone": "537 295 998",
        "street": "440 Ceballos Huerta",
        "city": "Oaxaca Sara",
        "state": "Aguascalientes",
        "lat": "19.4350203104182",
        "lng": "-99.1272196445501"
    }
},
{
    "model": "main.restaurante",
    "pk": "ed23040e-6d68-4211-b31c-62e2f36d120a",
    "fields": {
        "rating": 3,
        "name": "Casanova - Jaramillo",
        "site": "http://brayan.com",
        "email": "Valentina_Gracia59@nearbpo.com",
        "phone": "573.342.065",
        "street": "220 \u00c1ngel Gabriel Solar",
        "city": "Canc\u00fan Yaretzi",
        "state": "Durango",
        "lat": "19.4338099754932",
        "lng": "-99.1293445790167"
    }
},
{
    "model": "main.restaurante",
    "pk": "edb50561-46f9-4541-9c04-8de82401cc13",
    "fields": {
        "rating": 4,
        "name": "Pedraza - Ni\u00f1o",
        "site": "http://jos\u00e9 eduardo.gob.mx",
        "email": "Irene_Rojas95@nearbpo.com",
        "phone": "537 531 201",
        "street": "207 Chavarr\u00eda Lado",
        "city": "Franciscohaven",
        "state": "Baja California Norte",
        "lat": "19.4426838205224",
        "lng": "-99.1250245928884"
    }
},
{
    "model": "main.restaurante",
    "pk": "f73cfbce-60b8-4e2c-9ec7-de8dbb5e0a49",
    "fields": {
        "rating": 1,
        "name": "Palacios - Montez",
        "site": "https://felipe.org",
        "email": "Rosalia.Estvez@nearbpo.com",
        "phone": "590 666 046",
        "street": "7676 Raquel Solar",
        "city": "Marco Antonioton",
        "state": "Michoacan",
        "lat": "19.4410634069499",
        "lng": "-99.1304676964673"
    }
},
{
    "model": "main.restaurante",
    "pk": "fcb9b113-49f5-4119-8016-c7357ac135fc",
    "fields": {
        "rating": 0,
        "name": "Briones S.A.",
        "site": "http://mar\u00eda de jes\u00fas.com",
        "email": "Emilio_Abeyta@yahoo.com",
        "phone": "539 404 967",
        "street": "375 Puente Puente",
        "city": "Tulancingo de Bravo Margarita",
        "state": "Zacatecas",
        "lat": "19.4397584721567",
        "lng": "-99.1261198391815"
    }
},
{
    "model": "main.restaurante",
    "pk": "fdc12e77-af11-496a-846b-94068dcded56",
    "fields": {
        "rating": 2,
        "name": "Arag\u00f3n, Herrera and Cortez",
        "site": "https://camila.com.mx",
        "email": "Victoria14@hotmail.com",
        "phone": "5359-320-036",
        "street": "18089 Ram\u00edrez Partida",
        "city": "Los Mochis Carlachester",
        "state": "Jalisco",
        "lat": "19.4373096016916",
        "lng": "-99.1316867379894"
    }
},
{
    "model": "main.restaurante",
    "pk": "fe82f695-e437-4f42-9a69-d3a451c4a1d0",
    "fields": {
        "rating": 0,
        "name": "Jaramillo - Narv\u00e1ez",
        "site": "https://ra\u00fal.org",
        "email": "scar_Olivo@yahoo.com",
        "phone": "591 730 248",
        "street": "0112 Jaime Apartamento",
        "city": "Comit\u00e1n de Dominguez Gregorio",
        "state": "Jalisco",
        "lat": "19.4403016289445",
        "lng": "-99.1262358490707"
    }
}
]
